<mxfile host="app.diagrams.net" modified="2020-12-30T21:49:45.987Z" agent="5.0 (Windows NT 10.0; Win64; x64) AppleWebKit/537.36 (KHTML, like Gecko) Chrome/86.0.4240.198 Safari/537.36" etag="BEmmY8nLKuY-EE4UVpIu" version="14.0.3" type="gitlab">
  <diagram name="Page-1" id="c4acf3e9-155e-7222-9cf6-157b1a14988f">
    <mxGraphModel dx="1718" dy="1550" grid="1" gridSize="10" guides="1" tooltips="1" connect="1" arrows="1" fold="1" page="1" pageScale="1" pageWidth="850" pageHeight="1100" background="#ffffff" math="0" shadow="0">
      <root>
        <mxCell id="0" />
        <mxCell id="1" parent="0" />
        <mxCell id="17acba5748e5396b-1" value="frame" style="shape=umlFrame;whiteSpace=wrap;html=1;rounded=0;shadow=1;comic=0;labelBackgroundColor=none;strokeWidth=1;fontFamily=Verdana;fontSize=10;align=center;gradientColor=#ea6b66;fillColor=#f8cecc;strokeColor=#b85450;" parent="1" vertex="1">
          <mxGeometry x="-10" y="-189" width="870" height="890" as="geometry" />
        </mxCell>
        <mxCell id="OYoF8XOcF1c5r2e60UFY-2" value="Tools" style="swimlane;fontStyle=1;align=center;verticalAlign=top;childLayout=stackLayout;horizontal=1;startSize=26;horizontalStack=0;resizeParent=1;resizeParentMax=0;resizeLast=0;collapsible=1;marginBottom=0;fillColor=#f8cecc;strokeColor=#b85450;" parent="1" vertex="1">
          <mxGeometry x="260" y="-60" width="285" height="360" as="geometry" />
        </mxCell>
        <mxCell id="OYoF8XOcF1c5r2e60UFY-3" value="#_color: int&#xa;#_type: string&#xa;#_x_place: char&#xa;#_y_place: int&#xa;&#xa;" style="text;strokeColor=#b85450;fillColor=#f8cecc;align=left;verticalAlign=top;spacingLeft=4;spacingRight=4;overflow=hidden;rotatable=0;points=[[0,0.5],[1,0.5]];portConstraint=eastwest;" parent="OYoF8XOcF1c5r2e60UFY-2" vertex="1">
          <mxGeometry y="26" width="285" height="74" as="geometry" />
        </mxCell>
        <mxCell id="OYoF8XOcF1c5r2e60UFY-5" value="Tools(color, type, x, y): Tools&#xa;~Tools()&#xa;+ setColor(color): void&#xa;+setType(type): void&#xa;+setX(x_place): void&#xa;+setY(y_place): void&#xa;+getColor():int&#xa;+getType(): string&#xa;+getX(): char&#xa;+getY(): int&#xa;+virtual checkMove(new_x, new_y, _board): bool&#xa;+move(new_x, new_y, _board): void&#xa;+eat(new_x, new_y, _board):void&#xa;+isPlaceTaken(x, y, _board): bool&#xa;+virtual is_chess(_board): bool&#xa;+virual can_eat(new_x, new_y, _board): bool&#xa;+ moveCausesChess(new_x, new_y,_board): bool&#xa;&#xa;" style="text;strokeColor=#b85450;fillColor=#f8cecc;align=left;verticalAlign=top;spacingLeft=4;spacingRight=4;overflow=hidden;rotatable=0;points=[[0,0.5],[1,0.5]];portConstraint=eastwest;" parent="OYoF8XOcF1c5r2e60UFY-2" vertex="1">
          <mxGeometry y="100" width="285" height="260" as="geometry" />
        </mxCell>
        <mxCell id="OYoF8XOcF1c5r2e60UFY-10" value="" style="endArrow=block;endSize=16;endFill=0;html=1;entryX=0.2;entryY=1.005;entryDx=0;entryDy=0;entryPerimeter=0;exitX=0.4;exitY=0.111;exitDx=0;exitDy=0;exitPerimeter=0;" parent="1" source="OYoF8XOcF1c5r2e60UFY-15" target="OYoF8XOcF1c5r2e60UFY-5" edge="1">
          <mxGeometry width="160" relative="1" as="geometry">
            <mxPoint x="70" y="380" as="sourcePoint" />
            <mxPoint x="230" y="380" as="targetPoint" />
          </mxGeometry>
        </mxCell>
        <mxCell id="OYoF8XOcF1c5r2e60UFY-15" value="King" style="swimlane;fontStyle=1;align=center;verticalAlign=top;childLayout=stackLayout;horizontal=1;startSize=26;horizontalStack=0;resizeParent=1;resizeParentMax=0;resizeLast=0;collapsible=1;marginBottom=0;fillColor=#ffe6cc;strokeColor=#d79b00;" parent="1" vertex="1">
          <mxGeometry x="10" y="370" width="250" height="80" as="geometry">
            <mxRectangle x="10" y="380" width="60" height="26" as="alternateBounds" />
          </mxGeometry>
        </mxCell>
        <mxCell id="OYoF8XOcF1c5r2e60UFY-18" value="+ checkMove(new_x, new_y) override: bool&#xa;+King(): King&#xa;+~King()&#xa;" style="text;strokeColor=#d79b00;fillColor=#ffe6cc;align=left;verticalAlign=top;spacingLeft=4;spacingRight=4;overflow=hidden;rotatable=0;points=[[0,0.5],[1,0.5]];portConstraint=eastwest;" parent="OYoF8XOcF1c5r2e60UFY-15" vertex="1">
          <mxGeometry y="26" width="250" height="54" as="geometry" />
        </mxCell>
        <mxCell id="OYoF8XOcF1c5r2e60UFY-19" value="" style="endArrow=block;endSize=16;endFill=0;html=1;" parent="1" target="OYoF8XOcF1c5r2e60UFY-5" edge="1">
          <mxGeometry x="0.1669" y="-46" width="160" relative="1" as="geometry">
            <mxPoint x="370" y="360" as="sourcePoint" />
            <mxPoint x="530" y="360" as="targetPoint" />
            <mxPoint as="offset" />
          </mxGeometry>
        </mxCell>
        <mxCell id="OYoF8XOcF1c5r2e60UFY-20" value="Queen" style="swimlane;fontStyle=1;align=center;verticalAlign=top;childLayout=stackLayout;horizontal=1;startSize=26;horizontalStack=0;resizeParent=1;resizeParentMax=0;resizeLast=0;collapsible=1;marginBottom=0;fillColor=#b0e3e6;strokeColor=#0e8088;" parent="1" vertex="1">
          <mxGeometry x="284" y="362" width="252" height="110" as="geometry" />
        </mxCell>
        <mxCell id="OYoF8XOcF1c5r2e60UFY-23" value="+ Queen(): Queen&#xa;+~Queen()&#xa;+ checkMove(new_x, new_y) override: bool&#xa;+checkStraight(new_x, new_y, _board): bool&#xa;+ checkSlant(new_x, new_y, _board): bool" style="text;align=left;verticalAlign=top;spacingLeft=4;spacingRight=4;overflow=hidden;rotatable=0;points=[[0,0.5],[1,0.5]];portConstraint=eastwest;fillColor=#b0e3e6;strokeColor=#0e8088;" parent="OYoF8XOcF1c5r2e60UFY-20" vertex="1">
          <mxGeometry y="26" width="252" height="84" as="geometry" />
        </mxCell>
        <mxCell id="OYoF8XOcF1c5r2e60UFY-24" value="" style="endArrow=block;endSize=16;endFill=0;html=1;" parent="1" edge="1">
          <mxGeometry width="160" relative="1" as="geometry">
            <mxPoint x="610" y="270" as="sourcePoint" />
            <mxPoint x="540" y="270" as="targetPoint" />
          </mxGeometry>
        </mxCell>
        <mxCell id="OYoF8XOcF1c5r2e60UFY-29" value="Rook" style="swimlane;fontStyle=1;align=center;verticalAlign=top;childLayout=stackLayout;horizontal=1;startSize=26;horizontalStack=0;resizeParent=1;resizeParentMax=0;resizeLast=0;collapsible=1;marginBottom=0;fillColor=#bac8d3;strokeColor=#23445d;" parent="1" vertex="1">
          <mxGeometry x="570" y="367" width="250" height="90" as="geometry" />
        </mxCell>
        <mxCell id="OYoF8XOcF1c5r2e60UFY-32" value="+ Rook(): Rook&#xa;+~Rook()&#xa;+ checkMove(new_x, new_y) override: bool" style="text;strokeColor=#23445d;fillColor=#bac8d3;align=left;verticalAlign=top;spacingLeft=4;spacingRight=4;overflow=hidden;rotatable=0;points=[[0,0.5],[1,0.5]];portConstraint=eastwest;" parent="OYoF8XOcF1c5r2e60UFY-29" vertex="1">
          <mxGeometry y="26" width="250" height="64" as="geometry" />
        </mxCell>
        <mxCell id="OYoF8XOcF1c5r2e60UFY-33" value="" style="endArrow=block;endSize=16;endFill=0;html=1;entryX=0.988;entryY=1.005;entryDx=0;entryDy=0;entryPerimeter=0;" parent="1" target="OYoF8XOcF1c5r2e60UFY-5" edge="1">
          <mxGeometry x="-0.1665" y="-20" width="160" relative="1" as="geometry">
            <mxPoint x="630" y="367" as="sourcePoint" />
            <mxPoint x="780" y="357" as="targetPoint" />
            <mxPoint as="offset" />
          </mxGeometry>
        </mxCell>
        <mxCell id="OYoF8XOcF1c5r2e60UFY-43" value="Knight" style="swimlane;fontStyle=1;align=center;verticalAlign=top;childLayout=stackLayout;horizontal=1;startSize=26;horizontalStack=0;resizeParent=1;resizeParentMax=0;resizeLast=0;collapsible=1;marginBottom=0;fillColor=#d5e8d4;strokeColor=#82b366;" parent="1" vertex="1">
          <mxGeometry x="600" y="60" width="250" height="80" as="geometry" />
        </mxCell>
        <mxCell id="OYoF8XOcF1c5r2e60UFY-60" value="" style="endArrow=block;endSize=16;endFill=0;html=1;" parent="OYoF8XOcF1c5r2e60UFY-43" edge="1">
          <mxGeometry x="1" y="201" width="160" relative="1" as="geometry">
            <mxPoint y="90" as="sourcePoint" />
            <mxPoint x="-60" y="90" as="targetPoint" />
            <mxPoint x="20" y="1" as="offset" />
            <Array as="points">
              <mxPoint x="-30" y="90" />
            </Array>
          </mxGeometry>
        </mxCell>
        <mxCell id="OYoF8XOcF1c5r2e60UFY-46" value="+ Knight(): Knight&#xa;+~Knight()&#xa;+ checkMove(new_x, new_y) override: bool" style="text;strokeColor=#82b366;fillColor=#d5e8d4;align=left;verticalAlign=top;spacingLeft=4;spacingRight=4;overflow=hidden;rotatable=0;points=[[0,0.5],[1,0.5]];portConstraint=eastwest;" parent="OYoF8XOcF1c5r2e60UFY-43" vertex="1">
          <mxGeometry y="26" width="250" height="54" as="geometry" />
        </mxCell>
        <mxCell id="OYoF8XOcF1c5r2e60UFY-56" value="Bishop" style="swimlane;fontStyle=1;align=center;verticalAlign=top;childLayout=stackLayout;horizontal=1;startSize=26;horizontalStack=0;resizeParent=1;resizeParentMax=0;resizeLast=0;collapsible=1;marginBottom=0;fillColor=#e1d5e7;strokeColor=#9673a6;" parent="1" vertex="1">
          <mxGeometry x="600" y="230" width="250" height="84" as="geometry" />
        </mxCell>
        <mxCell id="OYoF8XOcF1c5r2e60UFY-59" value="+ Bishop(color&#39;sMove): Bishop&#xa;+~Bishop()&#xa;+ checkMove(new_x, new_y) override: bool&#xa;" style="text;strokeColor=#9673a6;fillColor=#e1d5e7;align=left;verticalAlign=top;spacingLeft=4;spacingRight=4;overflow=hidden;rotatable=0;points=[[0,0.5],[1,0.5]];portConstraint=eastwest;" parent="OYoF8XOcF1c5r2e60UFY-56" vertex="1">
          <mxGeometry y="26" width="250" height="58" as="geometry" />
        </mxCell>
        <mxCell id="OYoF8XOcF1c5r2e60UFY-62" value="Pawn" style="swimlane;fontStyle=1;align=center;verticalAlign=top;childLayout=stackLayout;horizontal=1;startSize=26;horizontalStack=0;resizeParent=1;resizeParentMax=0;resizeLast=0;collapsible=1;marginBottom=0;fillColor=#dae8fc;strokeColor=#6c8ebf;" parent="1" vertex="1">
          <mxGeometry x="600" y="-140" width="250" height="142" as="geometry" />
        </mxCell>
        <mxCell id="OYoF8XOcF1c5r2e60UFY-63" value="+ _didFirstMove: bool" style="text;strokeColor=#6c8ebf;fillColor=#dae8fc;align=left;verticalAlign=top;spacingLeft=4;spacingRight=4;overflow=hidden;rotatable=0;points=[[0,0.5],[1,0.5]];portConstraint=eastwest;" parent="OYoF8XOcF1c5r2e60UFY-62" vertex="1">
          <mxGeometry y="26" width="250" height="26" as="geometry" />
        </mxCell>
        <mxCell id="OYoF8XOcF1c5r2e60UFY-61" value="" style="endArrow=block;endSize=16;endFill=0;html=1;entryX=1;entryY=0;entryDx=0;entryDy=0;" parent="OYoF8XOcF1c5r2e60UFY-62" target="OYoF8XOcF1c5r2e60UFY-2" edge="1">
          <mxGeometry x="0.625" y="190" width="160" relative="1" as="geometry">
            <mxPoint y="42.5" as="sourcePoint" />
            <mxPoint x="160" y="42.5" as="targetPoint" />
            <mxPoint as="offset" />
          </mxGeometry>
        </mxCell>
        <mxCell id="OYoF8XOcF1c5r2e60UFY-65" value="+ Pawn(): Pawn&#xa;+~Pawn()&#xa;+ checkMove(new_x, new_y) override: bool&#xa;+setDidFirstMove(didFirstMove):bool&#xa;+ getDidFirstMove(): bool" style="text;strokeColor=#6c8ebf;fillColor=#dae8fc;align=left;verticalAlign=top;spacingLeft=4;spacingRight=4;overflow=hidden;rotatable=0;points=[[0,0.5],[1,0.5]];portConstraint=eastwest;" parent="OYoF8XOcF1c5r2e60UFY-62" vertex="1">
          <mxGeometry y="52" width="250" height="90" as="geometry" />
        </mxCell>
        <mxCell id="OYoF8XOcF1c5r2e60UFY-70" value="BoardGame" style="swimlane;fontStyle=1;align=center;verticalAlign=top;childLayout=stackLayout;horizontal=1;startSize=26;horizontalStack=0;resizeParent=1;resizeParentMax=0;resizeLast=0;collapsible=1;marginBottom=0;gradientColor=#d5739d;fillColor=#e6d0de;strokeColor=#996185;" parent="1" vertex="1">
          <mxGeometry x="280" y="500" width="270" height="182" as="geometry" />
        </mxCell>
        <mxCell id="OYoF8XOcF1c5r2e60UFY-71" value="- borad: int **&#xa;-size: int&#xa;_str_board: string&#xa;" style="text;strokeColor=#996185;fillColor=#e6d0de;align=left;verticalAlign=top;spacingLeft=4;spacingRight=4;overflow=hidden;rotatable=0;points=[[0,0.5],[1,0.5]];portConstraint=eastwest;gradientColor=#d5739d;" parent="OYoF8XOcF1c5r2e60UFY-70" vertex="1">
          <mxGeometry y="26" width="270" height="54" as="geometry" />
        </mxCell>
        <mxCell id="OYoF8XOcF1c5r2e60UFY-73" value="+ BoardGame(board): BoardGame&#xa;+~BoardGame()&#xa;+printBoard(): void&#xa;init_board(): void&#xa;+getBoard():std::vector&lt;std::vector&lt;Tools*&gt;&gt;&amp;&#xa;+update_str_board(int who_play):void" style="text;strokeColor=#996185;fillColor=#e6d0de;align=left;verticalAlign=top;spacingLeft=4;spacingRight=4;overflow=hidden;rotatable=0;points=[[0,0.5],[1,0.5]];portConstraint=eastwest;gradientColor=#d5739d;" parent="OYoF8XOcF1c5r2e60UFY-70" vertex="1">
          <mxGeometry y="80" width="270" height="102" as="geometry" />
        </mxCell>
        <mxCell id="v8aVSsHzZyml34YyIxob-1" value="players" style="swimlane;fontStyle=1;align=center;verticalAlign=top;childLayout=stackLayout;horizontal=1;startSize=26;horizontalStack=0;resizeParent=1;resizeParentMax=0;resizeLast=0;collapsible=1;marginBottom=0;gradientColor=#ea6b66;fillColor=#f8cecc;strokeColor=#b85450;" parent="1" vertex="1">
          <mxGeometry x="55" y="-90" width="175" height="140" as="geometry" />
        </mxCell>
        <mxCell id="v8aVSsHzZyml34YyIxob-2" value="- _whitePlayer: bool&#xa;-_blackPlayer: bool" style="text;strokeColor=#b85450;fillColor=#f8cecc;align=left;verticalAlign=top;spacingLeft=4;spacingRight=4;overflow=hidden;rotatable=0;points=[[0,0.5],[1,0.5]];portConstraint=eastwest;gradientColor=#ea6b66;" parent="v8aVSsHzZyml34YyIxob-1" vertex="1">
          <mxGeometry y="26" width="175" height="44" as="geometry" />
        </mxCell>
        <mxCell id="v8aVSsHzZyml34YyIxob-4" value="+ Players(): Players&#xa;+ get_white(): bool&#xa;+is_black(): bool&#xa;+setPlayer(whichPlayer): void " style="text;strokeColor=#b85450;fillColor=#f8cecc;align=left;verticalAlign=top;spacingLeft=4;spacingRight=4;overflow=hidden;rotatable=0;points=[[0,0.5],[1,0.5]];portConstraint=eastwest;gradientColor=#ea6b66;" parent="v8aVSsHzZyml34YyIxob-1" vertex="1">
          <mxGeometry y="70" width="175" height="70" as="geometry" />
        </mxCell>
        <mxCell id="LeGRb-FP9tzYFf2hc0TV-1" value="Manager" style="swimlane;fontStyle=1;align=center;verticalAlign=top;childLayout=stackLayout;horizontal=1;startSize=26;horizontalStack=0;resizeParent=1;resizeParentMax=0;resizeLast=0;collapsible=1;marginBottom=0;gradientColor=#7ea6e0;fillColor=#dae8fc;strokeColor=#6c8ebf;" vertex="1" parent="1">
          <mxGeometry x="20" y="102" width="210" height="202" as="geometry" />
        </mxCell>
        <mxCell id="LeGRb-FP9tzYFf2hc0TV-2" value="-boardGame: BoardGame*&#xa;-players: Players*&#xa;-_x_tools: int&#xa;-_y_tools: int&#xa;-_x_where_to_go: int&#xa;-_y_where_to_go: int" style="text;strokeColor=#6c8ebf;fillColor=#dae8fc;align=left;verticalAlign=top;spacingLeft=4;spacingRight=4;overflow=hidden;rotatable=0;points=[[0,0.5],[1,0.5]];portConstraint=eastwest;gradientColor=#7ea6e0;" vertex="1" parent="LeGRb-FP9tzYFf2hc0TV-1">
          <mxGeometry y="26" width="210" height="94" as="geometry" />
        </mxCell>
        <mxCell id="LeGRb-FP9tzYFf2hc0TV-4" value="+ Manager()&#xa;+~Manager()&#xa;+isToolsExist(ToolsToChack): bool&#xa;+gameConsole(Places): char&#xa;+checkAndSetDetails(moves): bool" style="text;strokeColor=#6c8ebf;fillColor=#dae8fc;align=left;verticalAlign=top;spacingLeft=4;spacingRight=4;overflow=hidden;rotatable=0;points=[[0,0.5],[1,0.5]];portConstraint=eastwest;gradientColor=#7ea6e0;" vertex="1" parent="LeGRb-FP9tzYFf2hc0TV-1">
          <mxGeometry y="120" width="210" height="82" as="geometry" />
        </mxCell>
      </root>
    </mxGraphModel>
  </diagram>
</mxfile>
